<define-tag pagetitle>DSA-4652-1 gnutls28</define-tag>
<define-tag report_date>2020-4-04</define-tag>
<define-tag secrefs>CVE-2020-11501 Bug#955556</define-tag>
<define-tag packages>gnutls28</define-tag>
<define-tag isvulnerable>yes</define-tag>
<define-tag fixed>yes</define-tag>
<define-tag fixed-section>no</define-tag>

#use wml::debian::security



</dl>
