<define-tag pagetitle>DSA-4661-1 openssl</define-tag>
<define-tag report_date>2020-4-21</define-tag>
<define-tag secrefs>CVE-2020-1967</define-tag>
<define-tag packages>openssl</define-tag>
<define-tag isvulnerable>yes</define-tag>
<define-tag fixed>yes</define-tag>
<define-tag fixed-section>no</define-tag>

#use wml::debian::security



</dl>
