<define-tag pagetitle>DLA-2446-1 moin</define-tag>
<define-tag report_date>2020-11-10</define-tag>
<define-tag secrefs>CVE-2020-15275 CVE-2020-25074</define-tag>
<define-tag packages>moin</define-tag>
<define-tag isvulnerable>yes</define-tag>
<define-tag fixed>yes</define-tag>
<define-tag fixed-section>no</define-tag>

#use wml::debian::security

