<define-tag pagetitle>DLA-2219-1 feh</define-tag>
<define-tag report_date>2020-5-24</define-tag>
<define-tag secrefs>CVE-2017-7875</define-tag>
<define-tag packages>feh</define-tag>
<define-tag isvulnerable>yes</define-tag>
<define-tag fixed>yes</define-tag>
<define-tag fixed-section>no</define-tag>

#use wml::debian::security

