<define-tag pagetitle>DLA-485-1 extplorer</define-tag>
<define-tag report_date>2016-5-22</define-tag>
<define-tag secrefs>CVE-2015-5660</define-tag>
<define-tag packages>extplorer</define-tag>
<define-tag isvulnerable>yes</define-tag>
<define-tag fixed>yes</define-tag>
<define-tag fixed-section>no</define-tag>

#use wml::debian::security

