<define-tag pagetitle>DLA-636-2 firefox-esr</define-tag>
<define-tag report_date>2016-9-30</define-tag>
<define-tag packages>firefox-esr</define-tag>
<define-tag isvulnerable>yes</define-tag>
<define-tag fixed>yes</define-tag>
<define-tag fixed-section>no</define-tag>

#use wml::debian::security

