<define-tag pagetitle>DLA-603-1 ruby-activesupport-3.2</define-tag>
<define-tag report_date>2016-8-27</define-tag>
<define-tag secrefs>CVE-2015-3227</define-tag>
<define-tag packages>ruby-activesupport-3.2</define-tag>
<define-tag isvulnerable>yes</define-tag>
<define-tag fixed>yes</define-tag>
<define-tag fixed-section>no</define-tag>

#use wml::debian::security

